Place,Category
19 Degree North,monument
Chand Baori (Step well),historical_ place
Harshat Mata Temple,temple
Wayanad Tea Museum,museum
Mazhai Malai Madha Shrine,temple
Moto Sport Park,theme_park
Achirupakkam,temple
Basar Saraswati Temple,temple
Kadam Dam,historical_ place
Kawal Wildlife Sanctuary,sanctuary
Fun Park,theme_park
Gudem Satyanarayana Swamy Temple,temple
Jainath Temple,temple
Kalwa Narsimha Swamy Temple,temple
Kuntala Waterfall,waterfall
Kadile Papahareshwar Temple,temple
Pochera Waterfalls,waterfall
Indian Spices & Herbal Garden,garden
Pranahita Wildlife Sanctuary,sanctuary
Saptha Kund,historical_ place
Sivaram Wildlife Sanctuary,sanctuary
Somaiya Kala Vidya,historical_ place
Sathnala Dam,historical_ place
Sant Lilashah Kutiya,sanctuary
Gandhi Samadhi,monument
Adoni Fort,historical_ place
Mannadi Devi Temple,temple
Trichennamangalam Mahadevar Temple,temple
Baramura Eco Park,sanctuary
