\headcommand {\slideentry {0}{0}{1}{1/1}{}{0}}
\headcommand {\beamer@framepages {1}{1}}
\headcommand {\beamer@sectionpages {1}{1}}
\headcommand {\beamer@subsectionpages {1}{1}}
\headcommand {\sectionentry {1}{Project Description}{2}{Project Description}{0}}
\headcommand {\slideentry {1}{0}{1}{2/2}{}{0}}
\headcommand {\beamer@framepages {2}{2}}
\headcommand {\beamer@sectionpages {2}{2}}
\headcommand {\beamer@subsectionpages {2}{2}}
\headcommand {\sectionentry {2}{Potential Learning}{3}{Potential Learning}{0}}
\headcommand {\slideentry {2}{0}{1}{3/3}{}{0}}
\headcommand {\beamer@framepages {3}{3}}
\headcommand {\slideentry {2}{0}{2}{4/4}{}{0}}
\headcommand {\beamer@framepages {4}{4}}
\headcommand {\slideentry {2}{0}{3}{5/5}{}{0}}
\headcommand {\beamer@framepages {5}{5}}
\headcommand {\beamer@sectionpages {3}{5}}
\headcommand {\beamer@subsectionpages {3}{5}}
\headcommand {\sectionentry {3}{Tech Stack}{6}{Tech Stack}{0}}
\headcommand {\slideentry {3}{0}{1}{6/6}{}{0}}
\headcommand {\beamer@framepages {6}{6}}
\headcommand {\beamer@sectionpages {6}{6}}
\headcommand {\beamer@subsectionpages {6}{6}}
\headcommand {\sectionentry {4}{Timeline}{7}{Timeline}{0}}
\headcommand {\slideentry {4}{0}{1}{7/7}{}{0}}
\headcommand {\beamer@framepages {7}{7}}
\headcommand {\slideentry {4}{0}{2}{8/8}{}{0}}
\headcommand {\beamer@framepages {8}{8}}
\headcommand {\beamer@sectionpages {7}{8}}
\headcommand {\beamer@subsectionpages {7}{8}}
\headcommand {\sectionentry {5}{Future Scope}{9}{Future Scope}{0}}
\headcommand {\slideentry {5}{0}{1}{9/9}{}{0}}
\headcommand {\beamer@framepages {9}{9}}
\headcommand {\beamer@sectionpages {9}{9}}
\headcommand {\beamer@subsectionpages {9}{9}}
\headcommand {\sectionentry {6}{References}{10}{References}{0}}
\headcommand {\slideentry {6}{0}{1}{10/10}{}{0}}
\headcommand {\beamer@framepages {10}{10}}
\headcommand {\beamer@partpages {1}{10}}
\headcommand {\beamer@subsectionpages {10}{10}}
\headcommand {\beamer@sectionpages {10}{10}}
\headcommand {\beamer@documentpages {10}}
\headcommand {\gdef \inserttotalframenumber {10}}
