\beamer@sectionintoc {1}{Project Description}{2}{0}{1}
\beamer@sectionintoc {2}{Potential Learning}{3}{0}{2}
\beamer@sectionintoc {3}{Tech Stack}{6}{0}{3}
\beamer@sectionintoc {4}{Timeline}{7}{0}{4}
\beamer@sectionintoc {5}{Future Scope}{9}{0}{5}
\beamer@sectionintoc {6}{References}{10}{0}{6}
