\BOOKMARK [2][]{Outline0.1}{\376\377\000P\000r\000o\000j\000e\000c\000t\000\040\000D\000e\000s\000c\000r\000i\000p\000t\000i\000o\000n}{}% 1
\BOOKMARK [2][]{Outline0.2}{\376\377\000T\000a\000s\000k\000\040\000D\000i\000v\000i\000s\000i\000o\000n}{}% 2
\BOOKMARK [2][]{Outline0.3}{\376\377\000C\000u\000r\000r\000e\000n\000t\000\040\000S\000t\000a\000t\000u\000s}{}% 3
\BOOKMARK [2][]{Outline0.4}{\376\377\000O\000u\000r\000\040\000L\000e\000a\000r\000n\000i\000n\000g\000s}{}% 4
